{
	"identifier": "2011-02-02-will-the-last-person-to-leave-9157644222.JPG",
	"image": "/home/tim/Dev/elioenlightenment/in4corners/media/2011-02-02-will-the-last-person-to-leave-9157644222.JPG",
	"mainEntityOfPage": "ImageObject",
	"subjectOf": "in4corners",
	"ItemList": {
		"itemListElement": [
			{
				"identifier": "DANGER_LOCKMEDOWN",
				"mainEntityOfPage": "GovernmentPermit",
				"Permit": {
					"issuedBy": "2011-02-02-will-the-last-person-to-leave-9157644222.JPG",
					"issuedThrough": "DANGER_LOCKMEDOWN",
					"permitAudience": "*",
					"validFor": "*"
				}
			}
		],
		"numberOfItems": 1
	},
	"ImageObject": {},
	"CreativeWork": {},
	"MediaObject": {
		"contentUrl": "2011-02-02-will-the-last-person-to-leave-9157644222.JPG",
		"height": 1936,
		"width": 1936
	}
}